{
	"name": "learning",
	"authors": [
		"simonrgk"
	],
	"dependencies": {
		"derelict-sdl2": "~>3.0.0-beta"
	},
	"description": "Test game using Derelict3",
	"copyright": "Copyright © 2018, simonrgk",
	"license": "public domain",

	"targetType": "executable",
	"targetPath": "bin",
	"workingDirectory": "bin"
}